{
  "project_info": {
    "project_number": "650349506598",
    "project_id": "grocery60-d9399",
    "storage_bucket": "grocery60-d9399.appspot.com"
  },
  "client": [
    {
      "client_info": {
        "mobilesdk_app_id": "1:650349506598:android:dba848f6b9c6dd9e7076e7",
        "android_client_info": {
          "package_name": "com.tissatech.Grocery60"
        }
      },
      "oauth_client": [
        {
          "client_id": "650349506598-h4r1osfmb8tluk6svavaaa4smc32qvme.apps.googleusercontent.com",
          "client_type": 3
        }
      ],
      "api_key": [
        {
          "current_key": "AIzaSyBKTZ8Poie5JTLlcUcdG2VmFPQFLITbCQA"
        }
      ],
      "services": {
        "appinvite_service": {
          "other_platform_oauth_client": [
            {
              "client_id": "650349506598-h4r1osfmb8tluk6svavaaa4smc32qvme.apps.googleusercontent.com",
              "client_type": 3
            },
            {
              "client_id": "650349506598-6gt80mkmobg680gupl3prum2uulkbpco.apps.googleusercontent.com",
              "client_type": 2,
              "ios_info": {
                "bundle_id": "com.tissatech.Grocery60"
              }
            }
          ]
        }
      }
    }
  ],
  "configuration_version": "1"
}